generated/SystemTop.vcd
$date
2022-12-02T15:31+0000
$end
$version
0.2
$end
$comment

$end
$timescale 1ns  $end
$scope module SystemTop $end
 $var wire 32 # io_testerDataMemDataRead $end
 $var wire 1 / io_testerDataMemWriteEnable $end
 $var wire 32 R io_testerDataMemDataWrite $end
 $var wire 1 S io_start $end
 $var wire 1 [ io_testerDataMemEnable $end
 $var wire 1 o clock $end
 $var wire 16 { io_testerDataMemAddress $end
 $var wire 1 | dataMemory $end
 $var wire 1 "! accelerator $end
 $var wire 1 "& io_done $end
 $var wire 1 "? reset $end
  $scope module dataMemory $end
   $var wire 32 ! _GEN_11 $end
   $var wire 32 & io_testerDataWrite $end
   $var wire 1 - clock $end
   $var wire 1 0 io_testerEnable $end
   $var wire 32 ? io_dataRead $end
   $var wire 32 @ io_dataWrite $end
   $var wire 1 W io_testerWriteEnable $end
   $var wire 32 X _GEN_5 $end
   $var wire 16 j io_address $end
   $var wire 1 n io_writeEnable $end
   $var wire 16 "% io_testerAddress $end
   $var wire 32 ") memory $end
   $var wire 32 "5 io_testerDataRead $end
    $scope module memory $end
      $scope module _T_1 $end
       $var wire 16 % addr $end
       $var wire 16 , pipeline_addr_0 $end
       $var wire 1 2 en $end
       $var wire 32 N data $end
       $var wire 32 d pipeline_data_0 $end
       $var wire 1 "" pipeline_valid_0 $end
       $var wire 1 "+ valid $end
       $var wire 1 "7 mask $end
       $var wire 1 "B clk $end
      $upscope $end
      $scope module _T $end
       $var wire 1 ) clk $end
       $var wire 16 i addr $end
       $var wire 1 m en $end
       $var wire 32 "< data $end
      $upscope $end
      $scope module _T_3 $end
       $var wire 1 1 pipeline_valid_0 $end
       $var wire 1 4 en $end
       $var wire 1 5 mask $end
       $var wire 16 9 pipeline_addr_0 $end
       $var wire 16 U addr $end
       $var wire 1 g clk $end
       $var wire 32 } pipeline_data_0 $end
       $var wire 32 "* data $end
       $var wire 1 "M valid $end
      $upscope $end
      $scope module _T_2 $end
       $var wire 1 : clk $end
       $var wire 16 A addr $end
       $var wire 32 a data $end
       $var wire 1 w en $end
      $upscope $end
    $upscope $end
  $upscope $end
  $scope module accelerator $end
   $var wire 4 " _GEN_2 $end
   $var wire 32 $ _GEN_13 $end
   $var wire 32 ' _GEN_28 $end
   $var wire 32 ( _GEN_34 $end
   $var wire 4 * _GEN_5 $end
   $var wire 32 + _GEN_78 $end
   $var wire 4 . _GEN_16 $end
   $var wire 32 3 _GEN_66 $end
   $var wire 32 6 dataReg $end
   $var wire 4 7 _GEN_8 $end
   $var wire 16 8 _GEN_51 $end
   $var wire 32 ; _GEN_75 $end
   $var wire 1 < _GEN_48 $end
   $var wire 16 = _GEN_33 $end
   $var wire 32 > _GEN_54 $end
   $var wire 4 B _GEN_69 $end
   $var wire 4 C _GEN_60 $end
   $var wire 32 D _GEN_57 $end
   $var wire 16 E _GEN_15 $end
   $var wire 1 F _GEN_42 $end
   $var wire 1 G _GEN_36 $end
   $var wire 32 H _GEN_63 $end
   $var wire 4 I _GEN_21 $end
   $var wire 1 J reset $end
   $var wire 1 K _GEN_24 $end
   $var wire 1 L _GEN_30 $end
   $var wire 4 M _GEN_7 $end
   $var wire 32 O _GEN_18 $end
   $var wire 16 P _GEN_45 $end
   $var wire 16 Q _GEN_39 $end
   $var wire 32 T _GEN_74 $end
   $var wire 16 V _GEN_27 $end
   $var wire 4 Y stateReg $end
   $var wire 16 Z _GEN_1 $end
   $var wire 1 \ _GEN_4 $end
   $var wire 32 ] _GEN_77 $end
   $var wire 1 ^ _T $end
   $var wire 16 _ _GEN_62 $end
   $var wire 32 ` _GEN_56 $end
   $var wire 32 b _GEN_38 $end
   $var wire 32 c _GEN_50 $end
   $var wire 32 e _GEN_44 $end
   $var wire 16 f _GEN_59 $end
   $var wire 32 h _GEN_71 $end
   $var wire 32 k _GEN_65 $end
   $var wire 16 l y $end
   $var wire 32 p _GEN_32 $end
   $var wire 4 q _GEN_47 $end
   $var wire 16 r _GEN_53 $end
   $var wire 1 s io_done $end
   $var wire 4 t _GEN_11 $end
   $var wire 16 u _GEN_68 $end
   $var wire 32 v _GEN_26 $end
   $var wire 1 x io_writeEnable $end
   $var wire 4 y _GEN_35 $end
   $var wire 4 z _GEN_41 $end
   $var wire 4 ~ _GEN_29 $end
   $var wire 32 "# _GEN_14 $end
   $var wire 16 "$ _GEN_20 $end
   $var wire 1 "' _GEN_17 $end
   $var wire 32 "( io_dataWrite $end
   $var wire 16 ", _GEN_6 $end
   $var wire 4 "- _GEN_23 $end
   $var wire 16 ". _GEN_0 $end
   $var wire 16 "/ io_address $end
   $var wire 1 "0 clock $end
   $var wire 4 "1 _GEN_9 $end
   $var wire 1 "2 io_start $end
   $var wire 32 "3 io_dataRead $end
   $var wire 32 "4 _GEN_73 $end
   $var wire 16 "6 _GEN_67 $end
   $var wire 1 "8 _GEN_61 $end
   $var wire 32 "9 _GEN_49 $end
   $var wire 32 ": _GEN_40 $end
   $var wire 1 "; _GEN_55 $end
   $var wire 4 "= _GEN_3 $end
   $var wire 16 "> x $end
   $var wire 32 "@ _GEN_37 $end
   $var wire 32 "A _GEN_43 $end
   $var wire 16 "C _GEN_58 $end
   $var wire 32 "D _GEN_22 $end
   $var wire 1 "E _GEN_64 $end
   $var wire 32 "F _GEN_31 $end
   $var wire 16 "G addressReg $end
   $var wire 32 "H _GEN_46 $end
   $var wire 4 "I _GEN_52 $end
   $var wire 4 "J _GEN_10 $end
   $var wire 32 "K _GEN_19 $end
   $var wire 32 "L _GEN_25 $end
  $upscope $end
$upscope $end
$enddefinitions $end
$dumpvars
0""
b00000000000000000000000000000000 '
0o
b0000 "1
b00000000000000000000000000000000 "#
b00000000000000000000000000000000 O
0m
b00000000000000000000000000000000 "4
b0000000000000000 l
0g
b00000000000000000000000000000000 }
b00000000000000000000000000000000 h
b00000000000000000000000000000000 `
b00000000000000000000000000000000 6
b0000 .
b0000000000000000 %
b0000000000000000 f
b00000000000000000000000000000000 b
0L
b0000000000000000 Q
0/
0x
b00000000000000000000000000000000 "*
0F
0[
0)
b00000000000000000000000000000000 $
0W
b00000000000000000000000000000000 ;
b0000000000000000 {
0"8
b00000000000000000000000000000000 (
b0000 q
b0000000000000000 u
b00000000000000000000000000000000 T
b00000000000000000000000000000000 ?
0"2
b0000 "
b0000 7
b0000000000000000 Z
b0000000000000000 E
b00000000000000000000000000000000 k
b00000000000000000000000000000000 "9
b00000000000000000000000000000000 e
0:
b00000000000000000000000000000000 3
b00000000000000000000000000000000 "5
0"E
b0000000000000000 9
04
b00000000000000000000000000000000 "L
b0000000000000000 ">
b00000000000000000000000000000000 "D
0"?
0w
00
b0000 z
b00000000000000000000000000000000 "H
b00000000000000000000000000000000 "@
b0000 t
b0000 B
b0000 Y
b00000000000000000000000000000000 "<
b00000000000000000000000000000000 D
b0000000000000000 ".
b0000000000000000 _
b00000000000000000000000000000000 p
b00000000000000000000000000000000 >
b00000000000000000000000000000000 !
b0000000000000000 "G
15
b00000000000000000000000000000000 #
b00000000000000000000000000000000 ":
b0000000000000000 ",
b0000 "J
b0000000000000000 "$
b0000 "-
b0000000000000000 r
b0000000000000000 "C
b0000000000000000 U
b0000000000000000 8
0"'
0|
b00000000000000000000000000000000 "K
0J
0-
b0000 M
b00000000000000000000000000000000 "(
0"+
b0000 y
b00000000000000000000000000000000 d
0"B
b0000 *
01
b0000000000000000 j
b0000 I
b00000000000000000000000000000000 "A
b0000 C
b00000000000000000000000000000000 X
0"!
b00000000000000000000000000000000 &
0n
0"M
b0000000000000000 "/
b0000000000000000 A
b0000000000000000 ,
0<
0S
1"7
b0000 "I
b00000000000000000000000000000000 N
b0000000000000000 =
b00000000000000000000000000000000 "3
b0000000000000000 "%
02
b0000000000000000 V
b00000000000000000000000000000000 R
0"0
b0000 "=
b0000 ~
b00000000000000000000000000000000 a
0K
b0000000000000000 "6
b0000000000000000 P
b00000000000000000000000000000000 "F
b00000000000000000000000000000000 c
b00000000000000000000000000000000 ")
b0000000000000000 i
0\
0G
0";
0"&
b00000000000000000000000000000000 ]
b00000000000000000000000000000000 +
b00000000000000000000000000000000 @
b00000000000000000000000000000000 H
0s
0^
b00000000000000000000000000000000 v
$end
#0
1"?
1J
1w
b1001 "1
b0011 *
b00000000000000000000000000000001 ]
b1001 "J
b00000000000000001111111111111111 +
1^
b1001 7
b1001 t
b1001 M
b0010 "=
#1
1-
1g
1"0
1"B
1o
1:
1)
#6
0-
0g
0"0
0"B
0o
0:
0)
#11
1-
1g
1"0
1"B
1o
1:
1)
#16
0-
0g
0"0
0"B
0o
0:
0)
#21
1-
1g
1"0
1"B
1o
1:
1)
#26
0-
0g
0"0
0"B
0o
0:
0)
#31
1-
1g
1"0
1"B
1o
1:
1)
#36
0-
0g
0"0
0"B
0o
0:
0)
#41
1-
1g
1"0
1"B
1o
1:
1)
#46
0-
0g
0"B
0J
0w
0o
1[
1/
0)
10
0"0
0"?
12
1W
0:
1m
1"+
#51
1-
1g
1"0
1"B
1""
1o
1:
1)
#56
0-
b0000000000000001 %
0g
0"0
0"B
b0000000000000001 "%
0o
b0000000000000001 {
b0000000000000001 i
0:
0)
#61
1-
1g
1"0
1"B
1o
1:
b0000000000000001 ,
1)
#66
0-
b0000000000000010 %
0g
0"0
0"B
b0000000000000010 "%
0o
b0000000000000010 {
b0000000000000010 i
0:
0)
#71
1-
1g
1"0
1"B
1o
1:
b0000000000000010 ,
1)
#76
0-
b0000000000000011 %
0g
0"0
0"B
b0000000000000011 "%
0o
b0000000000000011 {
b0000000000000011 i
0:
0)
#81
1-
1g
1"0
1"B
1o
1:
b0000000000000011 ,
1)
#86
0-
b0000000000000100 %
0g
0"0
0"B
b0000000000000100 "%
0o
b0000000000000100 {
b0000000000000100 i
0:
0)
#91
1-
1g
1"0
1"B
1o
1:
b0000000000000100 ,
1)
#96
0-
b0000000000000101 %
0g
0"0
0"B
b0000000000000101 "%
0o
b0000000000000101 {
b0000000000000101 i
0:
0)
#101
1-
1g
1"0
1"B
1o
1:
b0000000000000101 ,
1)
#106
0-
b0000000000000110 %
0g
0"0
0"B
b0000000000000110 "%
0o
b0000000000000110 {
b0000000000000110 i
0:
0)
#111
1-
1g
1"0
1"B
1o
1:
b0000000000000110 ,
1)
#116
0-
b0000000000000111 %
0g
0"0
0"B
b0000000000000111 "%
0o
b0000000000000111 {
b0000000000000111 i
0:
0)
#121
1-
1g
1"0
1"B
1o
1:
b0000000000000111 ,
1)
#126
0-
b0000000000001000 %
0g
0"0
0"B
b0000000000001000 "%
0o
b0000000000001000 {
b0000000000001000 i
0:
0)
#131
1-
1g
1"0
1"B
1o
1:
b0000000000001000 ,
1)
#136
0-
b0000000000001001 %
0g
0"0
0"B
b0000000000001001 "%
0o
b0000000000001001 {
b0000000000001001 i
0:
0)
#141
1-
1g
1"0
1"B
1o
1:
b0000000000001001 ,
1)
#146
0-
b0000000000001010 %
0g
0"0
0"B
b0000000000001010 "%
0o
b0000000000001010 {
b0000000000001010 i
0:
0)
#151
1-
1g
1"0
1"B
1o
1:
b0000000000001010 ,
1)
#156
0-
b0000000000001011 %
0g
0"0
0"B
b0000000000001011 "%
0o
b0000000000001011 {
b0000000000001011 i
0:
0)
#161
1-
1g
1"0
1"B
1o
1:
b0000000000001011 ,
1)
#166
0-
b0000000000001100 %
0g
0"0
0"B
b0000000000001100 "%
0o
b0000000000001100 {
b0000000000001100 i
0:
0)
#171
1-
1g
1"0
1"B
1o
1:
b0000000000001100 ,
1)
#176
0-
b0000000000001101 %
0g
0"0
0"B
b0000000000001101 "%
0o
b0000000000001101 {
b0000000000001101 i
0:
0)
#181
1-
1g
1"0
1"B
1o
1:
b0000000000001101 ,
1)
#186
0-
b0000000000001110 %
0g
0"0
0"B
b0000000000001110 "%
0o
b0000000000001110 {
b0000000000001110 i
0:
0)
#191
1-
1g
1"0
1"B
1o
1:
b0000000000001110 ,
1)
#196
0-
b0000000000001111 %
0g
0"0
0"B
b0000000000001111 "%
0o
b0000000000001111 {
b0000000000001111 i
0:
0)
#201
1-
1g
1"0
1"B
1o
1:
b0000000000001111 ,
1)
#206
0-
b0000000000010000 %
0g
0"0
0"B
b0000000000010000 "%
0o
b0000000000010000 {
b0000000000010000 i
0:
0)
#211
1-
1g
1"0
1"B
1o
1:
b0000000000010000 ,
1)
#216
0-
b0000000000010001 %
0g
0"0
0"B
b0000000000010001 "%
0o
b0000000000010001 {
b0000000000010001 i
0:
0)
#221
1-
1g
1"0
1"B
1o
1:
b0000000000010001 ,
1)
#226
0-
b0000000000010010 %
0g
0"0
0"B
b0000000000010010 "%
0o
b0000000000010010 {
b0000000000010010 i
0:
0)
#231
1-
1g
1"0
1"B
1o
1:
b0000000000010010 ,
1)
#236
0-
b0000000000010011 %
0g
0"0
0"B
b0000000000010011 "%
0o
b0000000000010011 {
b0000000000010011 i
0:
0)
#241
1-
1g
1"0
1"B
1o
1:
b0000000000010011 ,
1)
#246
0-
b0000000000010100 %
0g
0"0
0"B
b0000000000010100 "%
0o
b0000000000010100 {
b0000000000010100 i
0:
0)
#251
1-
1g
1"0
1"B
1o
1:
b0000000000010100 ,
1)
#256
0-
b0000000000010101 %
0g
0"0
0"B
b0000000000010101 "%
0o
b0000000000010101 {
b0000000000010101 i
0:
0)
#261
1-
1g
1"0
1"B
1o
1:
b0000000000010101 ,
1)
#266
0-
b0000000000010110 %
0g
0"0
0"B
b0000000000010110 "%
0o
b0000000000010110 {
b0000000000010110 i
0:
0)
#271
1-
1g
1"0
1"B
1o
1:
b0000000000010110 ,
1)
#276
0-
b0000000000010111 %
0g
0"0
0"B
b0000000000010111 "%
0o
b0000000000010111 {
b0000000000010111 i
0:
0)
#281
1-
1g
1"0
1"B
1o
1:
b0000000000010111 ,
1)
#286
0-
b0000000000011000 %
0g
0"0
0"B
b0000000000011000 "%
0o
b0000000000011000 {
b0000000000011000 i
0:
0)
#291
1-
1g
1"0
1"B
1o
1:
b0000000000011000 ,
1)
#296
0-
b0000000000011001 %
0g
0"0
0"B
b0000000000011001 "%
0o
b0000000000011001 {
b0000000000011001 i
0:
0)
#301
1-
1g
1"0
1"B
1o
1:
b0000000000011001 ,
1)
#306
0-
b0000000000011010 %
0g
0"0
0"B
b0000000000011010 "%
0o
b0000000000011010 {
b0000000000011010 i
0:
0)
#311
1-
1g
1"0
1"B
1o
1:
b0000000000011010 ,
1)
#316
0-
b0000000000011011 %
0g
0"0
0"B
b0000000000011011 "%
0o
b0000000000011011 {
b0000000000011011 i
0:
0)
#321
1-
1g
1"0
1"B
1o
1:
b0000000000011011 ,
1)
#326
0-
b0000000000011100 %
0g
0"0
0"B
b0000000000011100 "%
0o
b0000000000011100 {
b0000000000011100 i
0:
0)
#331
1-
1g
1"0
1"B
1o
1:
b0000000000011100 ,
1)
#336
0-
b0000000000011101 %
0g
0"0
0"B
b0000000000011101 "%
0o
b0000000000011101 {
b0000000000011101 i
0:
0)
#341
1-
1g
1"0
1"B
1o
1:
b0000000000011101 ,
1)
#346
0-
b0000000000011110 %
0g
0"0
0"B
b0000000000011110 "%
0o
b0000000000011110 {
b0000000000011110 i
0:
0)
#351
1-
1g
1"0
1"B
1o
1:
b0000000000011110 ,
1)
#356
0-
b0000000000011111 %
0g
0"0
0"B
b0000000000011111 "%
0o
b0000000000011111 {
b0000000000011111 i
0:
0)
#361
1-
1g
1"0
1"B
1o
1:
b0000000000011111 ,
1)
#366
0-
b0000000000100000 %
0g
0"0
0"B
b0000000000100000 "%
0o
b0000000000100000 {
b0000000000100000 i
0:
0)
#371
1-
1g
1"0
1"B
1o
1:
b0000000000100000 ,
1)
#376
0-
b0000000000100001 %
0g
0"0
0"B
b0000000000100001 "%
0o
b0000000000100001 {
b0000000000100001 i
0:
0)
#381
1-
1g
1"0
1"B
1o
1:
b0000000000100001 ,
1)
#386
0-
b0000000000100010 %
0g
0"0
0"B
b0000000000100010 "%
0o
b0000000000100010 {
b0000000000100010 i
0:
0)
#391
1-
1g
1"0
1"B
1o
1:
b0000000000100010 ,
1)
#396
0-
b0000000000100011 %
0g
0"0
0"B
b0000000000100011 "%
0o
b0000000000100011 {
b0000000000100011 i
0:
0)
#401
1-
1g
1"0
1"B
1o
1:
b0000000000100011 ,
1)
#406
0-
b0000000000100100 %
0g
0"0
0"B
b0000000000100100 "%
0o
b0000000000100100 {
b0000000000100100 i
0:
0)
#411
1-
1g
1"0
1"B
1o
1:
b0000000000100100 ,
1)
#416
0-
b0000000000100101 %
0g
0"0
0"B
b0000000000100101 "%
0o
b0000000000100101 {
b0000000000100101 i
0:
0)
#421
1-
1g
1"0
1"B
1o
1:
b0000000000100101 ,
1)
#426
0-
b0000000000100110 %
0g
0"0
0"B
b0000000000100110 "%
0o
b0000000000100110 {
b0000000000100110 i
0:
0)
#431
1-
1g
1"0
1"B
1o
1:
b0000000000100110 ,
1)
#436
0-
b0000000000100111 %
0g
0"0
0"B
b0000000000100111 "%
0o
b0000000000100111 {
b0000000000100111 i
0:
0)
#441
1-
1g
1"0
1"B
1o
1:
b0000000000100111 ,
1)
#446
0-
b0000000000101000 %
0g
0"0
0"B
b0000000000101000 "%
0o
b0000000000101000 {
b0000000000101000 i
0:
0)
#451
1-
1g
1"0
1"B
1o
1:
b0000000000101000 ,
1)
#456
0-
b0000000000101001 %
0g
0"0
0"B
b0000000000101001 "%
0o
b0000000000101001 {
b0000000000101001 i
0:
0)
#461
1-
1g
1"0
1"B
1o
1:
b0000000000101001 ,
1)
#466
0-
b0000000000101010 %
0g
0"0
0"B
b0000000000101010 "%
0o
b0000000000101010 {
b0000000000101010 i
0:
0)
#471
1-
1g
1"0
1"B
1o
1:
b0000000000101010 ,
1)
#476
0-
b0000000000101011 %
0g
0"0
0"B
b0000000000101011 "%
0o
b0000000000101011 {
b0000000000101011 i
0:
0)
#481
1-
1g
1"0
1"B
1o
1:
b0000000000101011 ,
1)
#486
0-
b0000000000101100 %
0g
0"0
0"B
b0000000000101100 "%
0o
b0000000000101100 {
b0000000000101100 i
0:
0)
#491
1-
1g
1"0
1"B
1o
1:
b0000000000101100 ,
1)
#496
0-
b0000000000101101 %
0g
0"0
0"B
b0000000000101101 "%
0o
b0000000000101101 {
b0000000000101101 i
0:
0)
#501
1-
1g
1"0
1"B
1o
1:
b0000000000101101 ,
1)
#506
0-
b0000000000101110 %
0g
0"0
0"B
b0000000000101110 "%
0o
b0000000000101110 {
b0000000000101110 i
0:
0)
#511
1-
1g
1"0
1"B
1o
1:
b0000000000101110 ,
1)
#516
0-
b0000000000101111 %
0g
0"0
0"B
b0000000000101111 "%
0o
b0000000000101111 {
b0000000000101111 i
0:
0)
#521
1-
1g
1"0
1"B
1o
1:
b0000000000101111 ,
1)
#526
0-
b0000000000110000 %
0g
0"0
0"B
b0000000000110000 "%
0o
b0000000000110000 {
b0000000000110000 i
0:
0)
#531
1-
1g
1"0
1"B
1o
1:
b0000000000110000 ,
1)
#536
0-
b0000000000110001 %
0g
0"0
0"B
b0000000000110001 "%
0o
b0000000000110001 {
b0000000000110001 i
0:
0)
#541
1-
1g
1"0
1"B
1o
1:
b0000000000110001 ,
1)
#546
0-
b0000000000110010 %
0g
0"0
0"B
b0000000000110010 "%
0o
b0000000000110010 {
b0000000000110010 i
0:
0)
#551
1-
1g
1"0
1"B
1o
1:
b0000000000110010 ,
1)
#556
0-
b0000000000110011 %
0g
0"0
0"B
b0000000000110011 "%
0o
b0000000000110011 {
b0000000000110011 i
0:
0)
#561
1-
1g
1"0
1"B
1o
1:
b0000000000110011 ,
1)
#566
0-
b0000000000110100 %
0g
0"0
0"B
b0000000000110100 "%
0o
b0000000000110100 {
b0000000000110100 i
0:
0)
#571
1-
1g
1"0
1"B
1o
1:
b0000000000110100 ,
1)
#576
0-
b0000000000110101 %
0g
0"0
0"B
b0000000000110101 "%
0o
b0000000000110101 {
b0000000000110101 i
0:
0)
#581
1-
1g
1"0
1"B
1o
1:
b0000000000110101 ,
1)
#586
0-
b0000000000110110 %
0g
0"0
0"B
b0000000000110110 "%
0o
b0000000000110110 {
b0000000000110110 i
0:
0)
#591
1-
1g
1"0
1"B
1o
1:
b0000000000110110 ,
1)
#596
0-
b0000000000110111 %
0g
0"0
0"B
b0000000000110111 "%
0o
b0000000000110111 {
b0000000000110111 i
0:
0)
#601
1-
1g
1"0
1"B
1o
1:
b0000000000110111 ,
1)
#606
0-
b0000000000111000 %
0g
0"0
0"B
b0000000000111000 "%
0o
b0000000000111000 {
b0000000000111000 i
0:
0)
#611
1-
1g
1"0
1"B
1o
1:
b0000000000111000 ,
1)
#616
0-
b0000000000111001 %
0g
0"0
0"B
b0000000000111001 "%
0o
b0000000000111001 {
b0000000000111001 i
0:
0)
#621
1-
1g
1"0
1"B
1o
1:
b0000000000111001 ,
1)
#626
0-
b0000000000111010 %
0g
0"0
0"B
b0000000000111010 "%
0o
b0000000000111010 {
b0000000000111010 i
0:
0)
#631
1-
1g
1"0
1"B
1o
1:
b0000000000111010 ,
1)
#636
0-
b0000000000111011 %
0g
0"0
0"B
b0000000000111011 "%
0o
b0000000000111011 {
b0000000000111011 i
0:
0)
#641
1-
1g
1"0
1"B
1o
1:
b0000000000111011 ,
1)
#646
0-
b0000000000111100 %
0g
0"0
0"B
b0000000000111100 "%
0o
b0000000000111100 {
b0000000000111100 i
0:
0)
#651
1-
1g
1"0
1"B
1o
1:
b0000000000111100 ,
1)
#656
0-
b0000000000111101 %
0g
0"0
0"B
b0000000000111101 "%
0o
b0000000000111101 {
b0000000000111101 i
0:
0)
#661
1-
1g
1"0
1"B
1o
1:
b0000000000111101 ,
1)
#666
0-
b0000000000111110 %
0g
0"0
0"B
b0000000000111110 "%
0o
b0000000000111110 {
b0000000000111110 i
0:
0)
#671
1-
1g
1"0
1"B
1o
1:
b0000000000111110 ,
1)
#676
0-
b0000000000111111 %
0g
0"0
0"B
b0000000000111111 "%
0o
b0000000000111111 {
b0000000000111111 i
0:
0)
#681
1-
1g
1"0
1"B
1o
1:
b0000000000111111 ,
1)
#686
0-
b0000000001000000 %
0g
0"0
0"B
b0000000001000000 "%
0o
b0000000001000000 {
b0000000001000000 i
0:
0)
#691
1-
1g
1"0
1"B
1o
1:
b0000000001000000 ,
1)
#696
0-
b0000000001000001 %
0g
0"0
0"B
b0000000001000001 "%
0o
b0000000001000001 {
b0000000001000001 i
0:
0)
#701
1-
1g
1"0
1"B
1o
1:
b0000000001000001 ,
1)
#706
0-
b0000000001000010 %
0g
0"0
0"B
b0000000001000010 "%
0o
b0000000001000010 {
b0000000001000010 i
0:
0)
#711
1-
1g
1"0
1"B
1o
1:
b0000000001000010 ,
1)
#716
0-
b0000000001000011 %
0g
0"0
0"B
b0000000001000011 "%
0o
b0000000001000011 {
b0000000001000011 i
0:
0)
#721
1-
1g
1"0
1"B
1o
1:
b0000000001000011 ,
1)
#726
0-
b0000000001000100 %
0g
0"0
0"B
b0000000001000100 "%
0o
b0000000001000100 {
b0000000001000100 i
0:
0)
#731
1-
1g
1"0
1"B
1o
1:
b0000000001000100 ,
1)
#736
0-
b0000000001000101 %
0g
0"0
0"B
b0000000001000101 "%
0o
b0000000001000101 {
b0000000001000101 i
0:
0)
#741
1-
1g
1"0
1"B
1o
1:
b0000000001000101 ,
1)
#746
0-
b0000000001000110 %
0g
0"0
0"B
b0000000001000110 "%
0o
b0000000001000110 {
b0000000001000110 i
0:
0)
#751
1-
1g
1"0
1"B
1o
1:
b0000000001000110 ,
1)
#756
0-
b0000000001000111 %
0g
0"0
0"B
b0000000001000111 "%
0o
b0000000001000111 {
b0000000001000111 i
0:
0)
#761
1-
1g
1"0
1"B
1o
1:
b0000000001000111 ,
1)
#766
0-
b0000000001001000 %
0g
0"0
0"B
b0000000001001000 "%
0o
b0000000001001000 {
b0000000001001000 i
0:
0)
#771
1-
1g
1"0
1"B
1o
1:
b0000000001001000 ,
1)
#776
0-
b0000000001001001 %
0g
0"0
0"B
b0000000001001001 "%
0o
b0000000001001001 {
b0000000001001001 i
0:
0)
#781
1-
1g
1"0
1"B
1o
1:
b0000000001001001 ,
1)
#786
0-
b0000000001001010 %
0g
0"0
0"B
b0000000001001010 "%
0o
b0000000001001010 {
b0000000001001010 i
0:
0)
#791
1-
1g
1"0
1"B
1o
1:
b0000000001001010 ,
1)
#796
0-
b0000000001001011 %
0g
0"0
0"B
b0000000001001011 "%
0o
b0000000001001011 {
b0000000001001011 i
0:
0)
#801
1-
1g
1"0
1"B
1o
1:
b0000000001001011 ,
1)
#806
0-
b0000000001001100 %
0g
0"0
0"B
b0000000001001100 "%
0o
b0000000001001100 {
b0000000001001100 i
0:
0)
#811
1-
1g
1"0
1"B
1o
1:
b0000000001001100 ,
1)
#816
0-
b0000000001001101 %
0g
0"0
0"B
b0000000001001101 "%
0o
b0000000001001101 {
b0000000001001101 i
0:
0)
#821
1-
1g
1"0
1"B
1o
1:
b0000000001001101 ,
1)
#826
0-
b0000000001001110 %
0g
0"0
0"B
b0000000001001110 "%
0o
b0000000001001110 {
b0000000001001110 i
0:
0)
#831
1-
1g
1"0
1"B
1o
1:
b0000000001001110 ,
1)
#836
0-
b0000000001001111 %
0g
0"0
0"B
b0000000001001111 "%
0o
b0000000001001111 {
b0000000001001111 i
0:
0)
#841
1-
1g
1"0
1"B
1o
1:
b0000000001001111 ,
1)
#846
0-
b0000000001010000 %
0g
0"0
0"B
b0000000001010000 "%
0o
b0000000001010000 {
b0000000001010000 i
0:
0)
#851
1-
1g
1"0
1"B
1o
1:
b0000000001010000 ,
1)
#856
0-
b0000000001010001 %
0g
0"0
0"B
b0000000001010001 "%
0o
b0000000001010001 {
b0000000001010001 i
0:
0)
#861
1-
1g
1"0
1"B
1o
1:
b0000000001010001 ,
1)
#866
0-
b0000000001010010 %
0g
0"0
0"B
b0000000001010010 "%
0o
b0000000001010010 {
b0000000001010010 i
0:
0)
#871
1-
1g
1"0
1"B
1o
1:
b0000000001010010 ,
1)
#876
0-
b0000000001010011 %
0g
0"0
0"B
b0000000001010011 "%
0o
b0000000001010011 {
b0000000001010011 i
0:
0)
#881
1-
1g
1"0
1"B
1o
1:
b0000000001010011 ,
1)
#886
0-
b0000000001010100 %
0g
0"0
0"B
b0000000001010100 "%
0o
b0000000001010100 {
b0000000001010100 i
0:
0)
#891
1-
1g
1"0
1"B
1o
1:
b0000000001010100 ,
1)
#896
0-
b0000000001010101 %
0g
0"0
0"B
b0000000001010101 "%
0o
b0000000001010101 {
b0000000001010101 i
0:
0)
#901
1-
1g
1"0
1"B
1o
1:
b0000000001010101 ,
1)
#906
0-
b0000000001010110 %
0g
0"0
0"B
b0000000001010110 "%
0o
b0000000001010110 {
b0000000001010110 i
0:
0)
#911
1-
1g
1"0
1"B
1o
1:
b0000000001010110 ,
1)
#916
0-
b0000000001010111 %
0g
0"0
0"B
b0000000001010111 "%
0o
b0000000001010111 {
b0000000001010111 i
0:
0)
#921
1-
1g
1"0
1"B
1o
1:
b0000000001010111 ,
1)
#926
0-
b0000000001011000 %
0g
0"0
0"B
b0000000001011000 "%
0o
b0000000001011000 {
b0000000001011000 i
0:
0)
#931
1-
1g
1"0
1"B
1o
1:
b0000000001011000 ,
1)
#936
0-
b0000000001011001 %
0g
0"0
0"B
b0000000001011001 "%
0o
b0000000001011001 {
b0000000001011001 i
0:
0)
#941
1-
1g
1"0
1"B
1o
1:
b0000000001011001 ,
1)
#946
0-
b0000000001011010 %
0g
0"0
0"B
b0000000001011010 "%
0o
b0000000001011010 {
b0000000001011010 i
0:
0)
#951
1-
1g
1"0
1"B
1o
1:
b0000000001011010 ,
1)
#956
0-
b0000000001011011 %
0g
0"0
0"B
b0000000001011011 "%
0o
b0000000001011011 {
b0000000001011011 i
0:
0)
#961
1-
1g
1"0
1"B
1o
1:
b0000000001011011 ,
1)
#966
0-
b0000000001011100 %
0g
0"0
0"B
b0000000001011100 "%
0o
b0000000001011100 {
b0000000001011100 i
0:
0)
#971
1-
1g
1"0
1"B
1o
1:
b0000000001011100 ,
1)
#976
0-
b0000000001011101 %
0g
0"0
0"B
b0000000001011101 "%
0o
b0000000001011101 {
b0000000001011101 i
0:
0)
#981
1-
1g
1"0
1"B
1o
1:
b0000000001011101 ,
1)
#986
0-
b0000000001011110 %
0g
0"0
0"B
b0000000001011110 "%
0o
b0000000001011110 {
b0000000001011110 i
0:
0)
#991
1-
1g
1"0
1"B
1o
1:
b0000000001011110 ,
1)
#996
0-
b0000000001011111 %
b00000000000000000000000011111111 X
0g
b00000000000000000000000011111111 R
0"B
b00000000000000000000000011111111 &
b0000000001011111 "%
0o
b0000000001011111 i
b00000000000000000000000011111111 "5
0)
b00000000000000000000000011111111 N
0"0
b00000000000000000000000011111111 #
b0000000001011111 {
0:
#1001
1-
1g
b00000000000000000000000011111111 d
1"0
1"B
1o
1:
b00000000000000000000000011111111 "<
b0000000001011111 ,
1)
#1006
0-
b0000000001100000 %
b00000000000000000000000000000000 X
0g
b00000000000000000000000000000000 R
0"B
b00000000000000000000000000000000 &
b0000000001100000 "%
0o
b0000000001100000 i
b00000000000000000000000000000000 "5
b00000000000000000000000000000000 "<
0)
b00000000000000000000000000000000 N
0"0
b00000000000000000000000000000000 #
b0000000001100000 {
0:
#1011
1-
1g
b00000000000000000000000000000000 d
1"0
1"B
1o
1:
b0000000001100000 ,
1)
#1016
0-
b0000000001100001 %
0g
0"0
0"B
b0000000001100001 "%
0o
b0000000001100001 {
b0000000001100001 i
0:
0)
#1021
1-
1g
1"0
1"B
1o
1:
b0000000001100001 ,
1)
#1026
0-
b0000000001100010 %
0g
0"0
0"B
b0000000001100010 "%
0o
b0000000001100010 {
b0000000001100010 i
0:
0)
#1031
1-
1g
1"0
1"B
1o
1:
b0000000001100010 ,
1)
