generated/SystemTop.vcd
$date
2022-11-16T14:39+0000
$end
$version
0.2
$end
$comment

$end
$timescale 1ns  $end
$scope module SystemTop $end
 $var wire 32 # io_testerDataMemDataRead $end
 $var wire 1 / io_testerDataMemWriteEnable $end
 $var wire 32 S io_testerDataMemDataWrite $end
 $var wire 1 T io_start $end
 $var wire 1 ] io_testerDataMemEnable $end
 $var wire 1 p clock $end
 $var wire 16 | io_testerDataMemAddress $end
 $var wire 1 } dataMemory $end
 $var wire 1 "" accelerator $end
 $var wire 1 "' io_done $end
 $var wire 1 "D reset $end
  $scope module dataMemory $end
   $var wire 32 ! _GEN_11 $end
   $var wire 32 & io_testerDataWrite $end
   $var wire 1 - clock $end
   $var wire 1 1 io_testerEnable $end
   $var wire 32 @ io_dataRead $end
   $var wire 32 A io_dataWrite $end
   $var wire 1 Y io_testerWriteEnable $end
   $var wire 32 Z _GEN_5 $end
   $var wire 16 k io_address $end
   $var wire 1 o io_writeEnable $end
   $var wire 16 "& io_testerAddress $end
   $var wire 32 "* memory $end
   $var wire 32 "7 io_testerDataRead $end
    $scope module memory $end
      $scope module _T_1 $end
       $var wire 16 % addr $end
       $var wire 16 , pipeline_addr_0 $end
       $var wire 1 3 en $end
       $var wire 32 O data $end
       $var wire 32 e pipeline_data_0 $end
       $var wire 1 "# pipeline_valid_0 $end
       $var wire 1 "- valid $end
       $var wire 1 "9 mask $end
       $var wire 1 "G clk $end
      $upscope $end
      $scope module _T $end
       $var wire 1 ) clk $end
       $var wire 16 j addr $end
       $var wire 1 n en $end
       $var wire 32 "? data $end
      $upscope $end
      $scope module _T_3 $end
       $var wire 1 2 pipeline_valid_0 $end
       $var wire 1 6 en $end
       $var wire 1 7 mask $end
       $var wire 16 : pipeline_addr_0 $end
       $var wire 16 V addr $end
       $var wire 1 h clk $end
       $var wire 32 ~ pipeline_data_0 $end
       $var wire 32 ", data $end
       $var wire 1 "R valid $end
      $upscope $end
      $scope module _T_2 $end
       $var wire 1 ; clk $end
       $var wire 16 B addr $end
       $var wire 32 b data $end
       $var wire 1 x en $end
      $upscope $end
    $upscope $end
  $upscope $end
  $scope module accelerator $end
   $var wire 4 " _GEN_2 $end
   $var wire 32 $ _GEN_13 $end
   $var wire 32 ' _GEN_28 $end
   $var wire 32 ( _GEN_34 $end
   $var wire 4 * _GEN_5 $end
   $var wire 32 + _GEN_78 $end
   $var wire 4 . _GEN_16 $end
   $var wire 32 0 _GEN_84 $end
   $var wire 32 4 _GEN_72 $end
   $var wire 16 5 _GEN_66 $end
   $var wire 4 8 _GEN_8 $end
   $var wire 16 9 _GEN_51 $end
   $var wire 16 < _GEN_75 $end
   $var wire 1 = _GEN_48 $end
   $var wire 16 > _GEN_33 $end
   $var wire 32 ? _GEN_54 $end
   $var wire 16 C _GEN_69 $end
   $var wire 16 D _GEN_60 $end
   $var wire 32 E _GEN_57 $end
   $var wire 16 F _GEN_15 $end
   $var wire 1 G _GEN_42 $end
   $var wire 1 H _GEN_36 $end
   $var wire 32 I _GEN_63 $end
   $var wire 4 J _GEN_21 $end
   $var wire 1 K reset $end
   $var wire 1 L _GEN_24 $end
   $var wire 1 M _GEN_30 $end
   $var wire 4 N _GEN_7 $end
   $var wire 32 P _GEN_18 $end
   $var wire 16 Q _GEN_45 $end
   $var wire 16 R _GEN_39 $end
   $var wire 16 U _GEN_74 $end
   $var wire 16 W _GEN_27 $end
   $var wire 32 X _GEN_80 $end
   $var wire 4 [ stateReg $end
   $var wire 16 \ _GEN_1 $end
   $var wire 1 ^ _GEN_4 $end
   $var wire 1 _ _T $end
   $var wire 1 ` _GEN_62 $end
   $var wire 32 a _GEN_56 $end
   $var wire 32 c _GEN_38 $end
   $var wire 32 d _GEN_50 $end
   $var wire 32 f _GEN_44 $end
   $var wire 4 g _GEN_59 $end
   $var wire 1 i _GEN_71 $end
   $var wire 16 l y $end
   $var wire 16 m _GEN_65 $end
   $var wire 32 q _GEN_32 $end
   $var wire 4 r _GEN_47 $end
   $var wire 4 s _GEN_53 $end
   $var wire 1 t io_done $end
   $var wire 4 u _GEN_11 $end
   $var wire 1 v _GEN_68 $end
   $var wire 32 w _GEN_26 $end
   $var wire 1 y io_writeEnable $end
   $var wire 4 z _GEN_35 $end
   $var wire 4 { _GEN_41 $end
   $var wire 4 "! _GEN_29 $end
   $var wire 32 "$ _GEN_14 $end
   $var wire 16 "% _GEN_20 $end
   $var wire 1 "( _GEN_17 $end
   $var wire 32 ") io_dataWrite $end
   $var wire 32 "+ _GEN_85 $end
   $var wire 16 ". _GEN_6 $end
   $var wire 4 "/ _GEN_23 $end
   $var wire 16 "0 _GEN_0 $end
   $var wire 16 "1 io_address $end
   $var wire 1 "2 clock $end
   $var wire 4 "3 _GEN_9 $end
   $var wire 1 "4 io_start $end
   $var wire 32 "5 io_dataRead $end
   $var wire 32 "6 _GEN_73 $end
   $var wire 4 "8 _GEN_67 $end
   $var wire 32 ": _GEN_61 $end
   $var wire 32 "; _GEN_49 $end
   $var wire 32 "< _GEN_82 $end
   $var wire 32 "= _GEN_40 $end
   $var wire 1 "> _GEN_55 $end
   $var wire 4 "@ _GEN_3 $end
   $var wire 4 "A _GEN_76 $end
   $var wire 32 "B _GEN_70 $end
   $var wire 16 "C x $end
   $var wire 32 "E _GEN_37 $end
   $var wire 32 "F _GEN_43 $end
   $var wire 16 "H _GEN_58 $end
   $var wire 32 "I _GEN_22 $end
   $var wire 32 "J _GEN_64 $end
   $var wire 32 "K _GEN_31 $end
   $var wire 16 "L addressReg $end
   $var wire 32 "M _GEN_46 $end
   $var wire 16 "N _GEN_52 $end
   $var wire 4 "O _GEN_10 $end
   $var wire 32 "P _GEN_19 $end
   $var wire 32 "Q _GEN_25 $end
  $upscope $end
$upscope $end
$enddefinitions $end
$dumpvars
0""
b00000000000000000000000000000000 '
0o
b0000000000000000 "0
b0000000000000000 B
0=
b0000 r
b00000000000000000000000000000000 "M
b0000 "3
17
b00000000000000000000000000000000 O
b0000000000000000 >
b00000000000000000000000000000000 "I
b0000000000000000 "&
b0000000000000000 l
b0000000000000000 W
b0000000000000000 :
b0000 .
b0000000000000000 %
b00000000000000000000000000000000 w
b00000000000000000000000000000000 b
0L
b0000000000000000 Q
b00000000000000000000000000000000 E
b00000000000000000000000000000000 0
0"#
0/
0x
b0000000000000000 "N
b00000000000000000000000000000000 "*
b0000000000000000 "1
b0000 {
0)
b0000 s
0]
0H
b00000000000000000000000000000000 A
b00000000000000000000000000000000 $
b0000 "!
0v
b00000000000000000000000000000000 "=
b00000000000000000000000000000000 Z
b00000000000000000000000000000000 (
b00000000000000000000000000000000 q
0p
b0000000000000000 C
b00000000000000000000000000000000 ?
0"2
b0000 "
06
0"4
b0000000000000000 \
b00000000000000000000000000000000 e
b00000000000000000000000000000000 P
b0000000000000000 k
b00000000000000000000000000000000 "5
b0000 J
b0000000000000000 9
0"(
0`
b0000 "A
b0000000000000000 5
b0000 z
b00000000000000000000000000000000 "+
b00000000000000000000000000000000 "<
b0000000000000000 ".
0;
b0000 "/
b0000000000000000 |
b0000 [
b00000000000000000000000000000000 "6
b00000000000000000000000000000000 S
b00000000000000000000000000000000 !
0i
0T
b0000000000000000 D
b0000 8
b00000000000000000000000000000000 #
b00000000000000000000000000000000 ":
0"-
b00000000000000000000000000000000 "Q
b0000000000000000 "C
b00000000000000000000000000000000 f
b0000000000000000 U
0"D
b00000000000000000000000000000000 I
b00000000000000000000000000000000 4
0"'
03
b00000000000000000000000000000000 "K
0-
b00000000000000000000000000000000 "E
b0000000000000000 <
b0000 "@
b00000000000000000000000000000000 d
b0000 *
01
b0000000000000000 j
b00000000000000000000000000000000 ",
b0000000000000000 "H
b00000000000000000000000000000000 "$
1"9
b0000 u
0t
0_
0">
b00000000000000000000000000000000 X
b00000000000000000000000000000000 ";
b00000000000000000000000000000000 &
b0000000000000000 "L
0n
0Y
b0000 "8
b0000000000000000 ,
b00000000000000000000000000000000 "?
b0000 "O
b00000000000000000000000000000000 "7
b0000 N
0M
b00000000000000000000000000000000 "P
b0000000000000000 "%
02
b0000 g
b00000000000000000000000000000000 "J
b0000000000000000 V
b0000000000000000 m
b00000000000000000000000000000000 ~
0}
0h
b00000000000000000000000000000000 a
0K
0"G
b00000000000000000000000000000000 "F
b0000000000000000 R
b00000000000000000000000000000000 c
b00000000000000000000000000000000 ")
0y
0G
b00000000000000000000000000000000 @
b00000000000000000000000000000000 +
b00000000000000000000000000000000 "B
0^
0"R
b0000000000000000 F
$end
#0
1_
b1010 "O
b00000000000000000000000000000001 0
1"D
b1010 u
b1010 N
b1010 "3
b1010 8
b0011 *
1K
1x
b0010 "@
b00000000000000001111111111111111 "+
#1
1"2
1-
1h
1"G
1p
1;
1)
#6
0"2
0-
0h
0"G
0p
0;
0)
#11
1"2
1-
1h
1"G
1p
1;
1)
#16
0"2
0-
0h
0"G
0p
0;
0)
#21
1"2
1-
1h
1"G
1p
1;
1)
#26
0"2
0-
0h
0"G
0p
0;
0)
#31
1"2
1-
1h
1"G
1p
1;
1)
#36
0"2
0-
0h
0"G
0p
0;
0)
#41
1"2
1-
1h
1"G
1p
1;
1)
#46
13
0"2
0-
1Y
0h
0K
0x
0p
1"-
1/
0)
0"D
11
1]
0"G
0;
1n
#51
1"2
1-
1h
1"G
1"#
1p
1;
1)
#56
0"2
0-
b0000000000000001 %
0h
b0000000000000001 "&
0"G
0p
b0000000000000001 |
b0000000000000001 j
0;
0)
#61
1"2
1-
1h
1"G
1p
b0000000000000001 ,
1;
1)
#66
0"2
0-
b0000000000000010 %
0h
b0000000000000010 "&
0"G
0p
b0000000000000010 |
b0000000000000010 j
0;
0)
#71
1"2
1-
1h
1"G
1p
b0000000000000010 ,
1;
1)
#76
0"2
0-
b0000000000000011 %
0h
b0000000000000011 "&
0"G
0p
b0000000000000011 |
b0000000000000011 j
0;
0)
#81
1"2
1-
1h
1"G
1p
b0000000000000011 ,
1;
1)
#86
0"2
0-
b0000000000000100 %
0h
b0000000000000100 "&
0"G
0p
b0000000000000100 |
b0000000000000100 j
0;
0)
#91
1"2
1-
1h
1"G
1p
b0000000000000100 ,
1;
1)
#96
0"2
0-
b0000000000000101 %
0h
b0000000000000101 "&
0"G
0p
b0000000000000101 |
b0000000000000101 j
0;
0)
#101
1"2
1-
1h
1"G
1p
b0000000000000101 ,
1;
1)
#106
0"2
0-
b0000000000000110 %
0h
b0000000000000110 "&
0"G
0p
b0000000000000110 |
b0000000000000110 j
0;
0)
#111
1"2
1-
1h
1"G
1p
b0000000000000110 ,
1;
1)
#116
0"2
0-
b0000000000000111 %
0h
b0000000000000111 "&
0"G
0p
b0000000000000111 |
b0000000000000111 j
0;
0)
#121
1"2
1-
1h
1"G
1p
b0000000000000111 ,
1;
1)
#126
0"2
0-
b0000000000001000 %
0h
b0000000000001000 "&
0"G
0p
b0000000000001000 |
b0000000000001000 j
0;
0)
#131
1"2
1-
1h
1"G
1p
b0000000000001000 ,
1;
1)
#136
0"2
0-
b0000000000001001 %
0h
b0000000000001001 "&
0"G
0p
b0000000000001001 |
b0000000000001001 j
0;
0)
#141
1"2
1-
1h
1"G
1p
b0000000000001001 ,
1;
1)
#146
0"2
0-
b0000000000001010 %
0h
b0000000000001010 "&
0"G
0p
b0000000000001010 |
b0000000000001010 j
0;
0)
#151
1"2
1-
1h
1"G
1p
b0000000000001010 ,
1;
1)
#156
0"2
0-
b0000000000001011 %
0h
b0000000000001011 "&
0"G
0p
b0000000000001011 |
b0000000000001011 j
0;
0)
#161
1"2
1-
1h
1"G
1p
b0000000000001011 ,
1;
1)
#166
0"2
0-
b0000000000001100 %
0h
b0000000000001100 "&
0"G
0p
b0000000000001100 |
b0000000000001100 j
0;
0)
#171
1"2
1-
1h
1"G
1p
b0000000000001100 ,
1;
1)
#176
0"2
0-
b0000000000001101 %
0h
b0000000000001101 "&
0"G
0p
b0000000000001101 |
b0000000000001101 j
0;
0)
#181
1"2
1-
1h
1"G
1p
b0000000000001101 ,
1;
1)
#186
0"2
0-
b0000000000001110 %
0h
b0000000000001110 "&
0"G
0p
b0000000000001110 |
b0000000000001110 j
0;
0)
#191
1"2
1-
1h
1"G
1p
b0000000000001110 ,
1;
1)
#196
0"2
0-
b0000000000001111 %
0h
b0000000000001111 "&
0"G
0p
b0000000000001111 |
b0000000000001111 j
0;
0)
#201
1"2
1-
1h
1"G
1p
b0000000000001111 ,
1;
1)
#206
0"2
0-
b0000000000010000 %
0h
b0000000000010000 "&
0"G
0p
b0000000000010000 |
b0000000000010000 j
0;
0)
#211
1"2
1-
1h
1"G
1p
b0000000000010000 ,
1;
1)
#216
0"2
0-
b0000000000010001 %
0h
b0000000000010001 "&
0"G
0p
b0000000000010001 |
b0000000000010001 j
0;
0)
#221
1"2
1-
1h
1"G
1p
b0000000000010001 ,
1;
1)
#226
0"2
0-
b0000000000010010 %
0h
b0000000000010010 "&
0"G
0p
b0000000000010010 |
b0000000000010010 j
0;
0)
#231
1"2
1-
1h
1"G
1p
b0000000000010010 ,
1;
1)
#236
0"2
0-
b0000000000010011 %
0h
b0000000000010011 "&
0"G
0p
b0000000000010011 |
b0000000000010011 j
0;
0)
#241
1"2
1-
1h
1"G
1p
b0000000000010011 ,
1;
1)
#246
0"2
0-
b0000000000010100 %
0h
b0000000000010100 "&
0"G
0p
b0000000000010100 |
b0000000000010100 j
0;
0)
#251
1"2
1-
1h
1"G
1p
b0000000000010100 ,
1;
1)
#256
0"2
0-
b0000000000010101 %
0h
b0000000000010101 "&
0"G
0p
b0000000000010101 |
b0000000000010101 j
0;
0)
#261
1"2
1-
1h
1"G
1p
b0000000000010101 ,
1;
1)
#266
0"2
0-
b0000000000010110 %
0h
b0000000000010110 "&
0"G
0p
b0000000000010110 |
b0000000000010110 j
0;
0)
#271
1"2
1-
1h
1"G
1p
b0000000000010110 ,
1;
1)
#276
0"2
0-
b0000000000010111 %
0h
b0000000000010111 "&
0"G
0p
b0000000000010111 |
b0000000000010111 j
0;
0)
#281
1"2
1-
1h
1"G
1p
b0000000000010111 ,
1;
1)
#286
0"2
0-
b0000000000011000 %
0h
b0000000000011000 "&
0"G
0p
b0000000000011000 |
b0000000000011000 j
0;
0)
#291
1"2
1-
1h
1"G
1p
b0000000000011000 ,
1;
1)
#296
0"2
0-
b0000000000011001 %
0h
b0000000000011001 "&
0"G
0p
b0000000000011001 |
b0000000000011001 j
0;
0)
#301
1"2
1-
1h
1"G
1p
b0000000000011001 ,
1;
1)
#306
0"2
0-
b0000000000011010 %
0h
b0000000000011010 "&
0"G
0p
b0000000000011010 |
b0000000000011010 j
0;
0)
#311
1"2
1-
1h
1"G
1p
b0000000000011010 ,
1;
1)
#316
0"2
0-
b0000000000011011 %
0h
b0000000000011011 "&
0"G
0p
b0000000000011011 |
b0000000000011011 j
0;
0)
#321
1"2
1-
1h
1"G
1p
b0000000000011011 ,
1;
1)
#326
0"2
0-
b0000000000011100 %
0h
b0000000000011100 "&
0"G
0p
b0000000000011100 |
b0000000000011100 j
0;
0)
#331
1"2
1-
1h
1"G
1p
b0000000000011100 ,
1;
1)
#336
0"2
0-
b0000000000011101 %
0h
b0000000000011101 "&
0"G
0p
b0000000000011101 |
b0000000000011101 j
0;
0)
#341
1"2
1-
1h
1"G
1p
b0000000000011101 ,
1;
1)
#346
0"2
0-
b0000000000011110 %
0h
b0000000000011110 "&
0"G
0p
b0000000000011110 |
b0000000000011110 j
0;
0)
#351
1"2
1-
1h
1"G
1p
b0000000000011110 ,
1;
1)
#356
0"2
0-
b0000000000011111 %
0h
b0000000000011111 "&
0"G
0p
b0000000000011111 |
b0000000000011111 j
0;
0)
#361
1"2
1-
1h
1"G
1p
b0000000000011111 ,
1;
1)
#366
0"2
0-
b0000000000100000 %
0h
b0000000000100000 "&
0"G
0p
b0000000000100000 |
b0000000000100000 j
0;
0)
#371
1"2
1-
1h
1"G
1p
b0000000000100000 ,
1;
1)
#376
0"2
0-
b0000000000100001 %
0h
b0000000000100001 "&
0"G
0p
b0000000000100001 |
b0000000000100001 j
0;
0)
#381
1"2
1-
1h
1"G
1p
b0000000000100001 ,
1;
1)
#386
0"2
0-
b0000000000100010 %
0h
b0000000000100010 "&
0"G
0p
b0000000000100010 |
b0000000000100010 j
0;
0)
#391
1"2
1-
1h
1"G
1p
b0000000000100010 ,
1;
1)
#396
0"2
0-
b0000000000100011 %
0h
b0000000000100011 "&
0"G
0p
b0000000000100011 |
b0000000000100011 j
0;
0)
#401
1"2
1-
1h
1"G
1p
b0000000000100011 ,
1;
1)
#406
0"2
0-
b0000000000100100 %
0h
b0000000000100100 "&
0"G
0p
b0000000000100100 |
b0000000000100100 j
0;
0)
#411
1"2
1-
1h
1"G
1p
b0000000000100100 ,
1;
1)
#416
0"2
0-
b0000000000100101 %
0h
b0000000000100101 "&
0"G
0p
b0000000000100101 |
b0000000000100101 j
0;
0)
#421
1"2
1-
1h
1"G
1p
b0000000000100101 ,
1;
1)
#426
0"2
0-
b0000000000100110 %
0h
b0000000000100110 "&
0"G
0p
b0000000000100110 |
b0000000000100110 j
0;
0)
#431
1"2
1-
1h
1"G
1p
b0000000000100110 ,
1;
1)
#436
0"2
0-
b0000000000100111 %
0h
b0000000000100111 "&
0"G
0p
b0000000000100111 |
b0000000000100111 j
0;
0)
#441
1"2
1-
1h
1"G
1p
b0000000000100111 ,
1;
1)
#446
0"2
0-
b0000000000101000 %
0h
b0000000000101000 "&
0"G
0p
b0000000000101000 |
b0000000000101000 j
0;
0)
#451
1"2
1-
1h
1"G
1p
b0000000000101000 ,
1;
1)
#456
0"2
0-
b0000000000101001 %
0h
b0000000000101001 "&
0"G
0p
b0000000000101001 |
b0000000000101001 j
0;
0)
#461
1"2
1-
1h
1"G
1p
b0000000000101001 ,
1;
1)
#466
0"2
0-
b0000000000101010 %
0h
b0000000000101010 "&
0"G
0p
b0000000000101010 |
b0000000000101010 j
0;
0)
#471
1"2
1-
1h
1"G
1p
b0000000000101010 ,
1;
1)
#476
0"2
0-
b0000000000101011 %
0h
b0000000000101011 "&
0"G
0p
b0000000000101011 |
b0000000000101011 j
0;
0)
#481
1"2
1-
1h
1"G
1p
b0000000000101011 ,
1;
1)
#486
0"2
0-
b0000000000101100 %
0h
b0000000000101100 "&
0"G
0p
b0000000000101100 |
b0000000000101100 j
0;
0)
#491
1"2
1-
1h
1"G
1p
b0000000000101100 ,
1;
1)
#496
0"2
0-
b0000000000101101 %
0h
b0000000000101101 "&
0"G
0p
b0000000000101101 |
b0000000000101101 j
0;
0)
#501
1"2
1-
1h
1"G
1p
b0000000000101101 ,
1;
1)
#506
0"2
0-
b0000000000101110 %
0h
b0000000000101110 "&
0"G
0p
b0000000000101110 |
b0000000000101110 j
0;
0)
#511
1"2
1-
1h
1"G
1p
b0000000000101110 ,
1;
1)
#516
0"2
0-
b0000000000101111 %
0h
b0000000000101111 "&
0"G
0p
b0000000000101111 |
b0000000000101111 j
0;
0)
#521
1"2
1-
1h
1"G
1p
b0000000000101111 ,
1;
1)
#526
0"2
0-
b0000000000110000 %
0h
b0000000000110000 "&
0"G
0p
b0000000000110000 |
b0000000000110000 j
0;
0)
#531
1"2
1-
1h
1"G
1p
b0000000000110000 ,
1;
1)
#536
0"2
0-
b0000000000110001 %
0h
b0000000000110001 "&
0"G
0p
b0000000000110001 |
b0000000000110001 j
0;
0)
#541
1"2
1-
1h
1"G
1p
b0000000000110001 ,
1;
1)
#546
0"2
0-
b0000000000110010 %
0h
b0000000000110010 "&
0"G
0p
b0000000000110010 |
b0000000000110010 j
0;
0)
#551
1"2
1-
1h
1"G
1p
b0000000000110010 ,
1;
1)
#556
0"2
0-
b0000000000110011 %
0h
b0000000000110011 "&
0"G
0p
b0000000000110011 |
b0000000000110011 j
0;
0)
#561
1"2
1-
1h
1"G
1p
b0000000000110011 ,
1;
1)
#566
0"2
0-
b0000000000110100 %
0h
b0000000000110100 "&
0"G
0p
b0000000000110100 |
b0000000000110100 j
0;
0)
#571
1"2
1-
1h
1"G
1p
b0000000000110100 ,
1;
1)
#576
0"2
0-
b0000000000110101 %
0h
b0000000000110101 "&
0"G
0p
b0000000000110101 |
b0000000000110101 j
0;
0)
#581
1"2
1-
1h
1"G
1p
b0000000000110101 ,
1;
1)
#586
0"2
0-
b0000000000110110 %
0h
b0000000000110110 "&
0"G
0p
b0000000000110110 |
b0000000000110110 j
0;
0)
#591
1"2
1-
1h
1"G
1p
b0000000000110110 ,
1;
1)
#596
0"2
0-
b0000000000110111 %
0h
b0000000000110111 "&
0"G
0p
b0000000000110111 |
b0000000000110111 j
0;
0)
#601
1"2
1-
1h
1"G
1p
b0000000000110111 ,
1;
1)
#606
0"2
0-
b0000000000111000 %
0h
b0000000000111000 "&
0"G
0p
b0000000000111000 |
b0000000000111000 j
0;
0)
#611
1"2
1-
1h
1"G
1p
b0000000000111000 ,
1;
1)
#616
0"2
0-
b0000000000111001 %
0h
b0000000000111001 "&
0"G
0p
b0000000000111001 |
b0000000000111001 j
0;
0)
#621
1"2
1-
1h
1"G
1p
b0000000000111001 ,
1;
1)
#626
0"2
0-
b0000000000111010 %
0h
b0000000000111010 "&
0"G
0p
b0000000000111010 |
b0000000000111010 j
0;
0)
#631
1"2
1-
1h
1"G
1p
b0000000000111010 ,
1;
1)
#636
0"2
0-
b0000000000111011 %
0h
b0000000000111011 "&
0"G
0p
b0000000000111011 |
b0000000000111011 j
0;
0)
#641
1"2
1-
1h
1"G
1p
b0000000000111011 ,
1;
1)
#646
0"2
0-
b0000000000111100 %
0h
b0000000000111100 "&
0"G
0p
b0000000000111100 |
b0000000000111100 j
0;
0)
#651
1"2
1-
1h
1"G
1p
b0000000000111100 ,
1;
1)
#656
0"2
0-
b0000000000111101 %
0h
b0000000000111101 "&
0"G
0p
b0000000000111101 |
b0000000000111101 j
0;
0)
#661
1"2
1-
1h
1"G
1p
b0000000000111101 ,
1;
1)
#666
0"2
0-
b0000000000111110 %
0h
b0000000000111110 "&
0"G
0p
b0000000000111110 |
b0000000000111110 j
0;
0)
#671
1"2
1-
1h
1"G
1p
b0000000000111110 ,
1;
1)
#676
0"2
0-
b0000000000111111 %
0h
b0000000000111111 "&
0"G
0p
b0000000000111111 |
b0000000000111111 j
0;
0)
#681
1"2
1-
1h
1"G
1p
b0000000000111111 ,
1;
1)
#686
0"2
0-
b0000000001000000 %
0h
b0000000001000000 "&
0"G
0p
b0000000001000000 |
b0000000001000000 j
0;
0)
#691
1"2
1-
1h
1"G
1p
b0000000001000000 ,
1;
1)
#696
0"2
0-
b0000000001000001 %
0h
b0000000001000001 "&
0"G
0p
b0000000001000001 |
b0000000001000001 j
0;
0)
#701
1"2
1-
1h
1"G
1p
b0000000001000001 ,
1;
1)
#706
0"2
0-
b0000000001000010 %
0h
b0000000001000010 "&
0"G
0p
b0000000001000010 |
b0000000001000010 j
0;
0)
#711
1"2
1-
1h
1"G
1p
b0000000001000010 ,
1;
1)
#716
0"2
0-
b0000000001000011 %
0h
b0000000001000011 "&
0"G
0p
b0000000001000011 |
b0000000001000011 j
0;
0)
#721
1"2
1-
1h
1"G
1p
b0000000001000011 ,
1;
1)
#726
0"2
0-
b0000000001000100 %
0h
b0000000001000100 "&
0"G
0p
b0000000001000100 |
b0000000001000100 j
0;
0)
#731
1"2
1-
1h
1"G
1p
b0000000001000100 ,
1;
1)
#736
0"2
0-
b0000000001000101 %
0h
b0000000001000101 "&
0"G
0p
b0000000001000101 |
b0000000001000101 j
0;
0)
#741
1"2
1-
1h
1"G
1p
b0000000001000101 ,
1;
1)
#746
0"2
0-
b0000000001000110 %
0h
b0000000001000110 "&
0"G
0p
b0000000001000110 |
b0000000001000110 j
0;
0)
#751
1"2
1-
1h
1"G
1p
b0000000001000110 ,
1;
1)
#756
0"2
0-
b0000000001000111 %
0h
b0000000001000111 "&
0"G
0p
b0000000001000111 |
b0000000001000111 j
0;
0)
#761
1"2
1-
1h
1"G
1p
b0000000001000111 ,
1;
1)
#766
0"2
0-
b0000000001001000 %
0h
b0000000001001000 "&
0"G
0p
b0000000001001000 |
b0000000001001000 j
0;
0)
#771
1"2
1-
1h
1"G
1p
b0000000001001000 ,
1;
1)
#776
0"2
0-
b0000000001001001 %
0h
b0000000001001001 "&
0"G
0p
b0000000001001001 |
b0000000001001001 j
0;
0)
#781
1"2
1-
1h
1"G
1p
b0000000001001001 ,
1;
1)
#786
0"2
0-
b0000000001001010 %
0h
b0000000001001010 "&
0"G
0p
b0000000001001010 |
b0000000001001010 j
0;
0)
#791
1"2
1-
1h
1"G
1p
b0000000001001010 ,
1;
1)
#796
0"2
0-
b0000000001001011 %
0h
b0000000001001011 "&
0"G
0p
b0000000001001011 |
b0000000001001011 j
0;
0)
#801
1"2
1-
1h
1"G
1p
b0000000001001011 ,
1;
1)
#806
0"2
0-
b0000000001001100 %
0h
b0000000001001100 "&
0"G
0p
b0000000001001100 |
b0000000001001100 j
0;
0)
#811
1"2
1-
1h
1"G
1p
b0000000001001100 ,
1;
1)
#816
0"2
0-
b0000000001001101 %
0h
b0000000001001101 "&
0"G
0p
b0000000001001101 |
b0000000001001101 j
0;
0)
#821
1"2
1-
1h
1"G
1p
b0000000001001101 ,
1;
1)
#826
0"2
0-
b0000000001001110 %
0h
b0000000001001110 "&
0"G
0p
b0000000001001110 |
b0000000001001110 j
0;
0)
#831
1"2
1-
1h
1"G
1p
b0000000001001110 ,
1;
1)
#836
0"2
0-
b0000000001001111 %
0h
b0000000001001111 "&
0"G
0p
b0000000001001111 |
b0000000001001111 j
0;
0)
#841
1"2
1-
1h
1"G
1p
b0000000001001111 ,
1;
1)
#846
0"2
0-
b0000000001010000 %
0h
b0000000001010000 "&
0"G
0p
b0000000001010000 |
b0000000001010000 j
0;
0)
#851
1"2
1-
1h
1"G
1p
b0000000001010000 ,
1;
1)
#856
0"2
0-
b0000000001010001 %
0h
b0000000001010001 "&
0"G
0p
b0000000001010001 |
b0000000001010001 j
0;
0)
#861
1"2
1-
1h
1"G
1p
b0000000001010001 ,
1;
1)
#866
0"2
0-
b0000000001010010 %
0h
b0000000001010010 "&
0"G
0p
b0000000001010010 |
b0000000001010010 j
0;
0)
#871
1"2
1-
1h
1"G
1p
b0000000001010010 ,
1;
1)
#876
0"2
0-
b0000000001010011 %
0h
b0000000001010011 "&
0"G
0p
b0000000001010011 |
b0000000001010011 j
0;
0)
#881
1"2
1-
1h
1"G
1p
b0000000001010011 ,
1;
1)
#886
0"2
0-
b0000000001010100 %
0h
b0000000001010100 "&
0"G
0p
b0000000001010100 |
b0000000001010100 j
0;
0)
#891
1"2
1-
1h
1"G
1p
b0000000001010100 ,
1;
1)
#896
0"2
0-
b0000000001010101 %
0h
b0000000001010101 "&
0"G
0p
b0000000001010101 |
b0000000001010101 j
0;
0)
#901
1"2
1-
1h
1"G
1p
b0000000001010101 ,
1;
1)
#906
0"2
0-
b0000000001010110 %
0h
b0000000001010110 "&
0"G
0p
b0000000001010110 |
b0000000001010110 j
0;
0)
#911
1"2
1-
1h
1"G
1p
b0000000001010110 ,
1;
1)
#916
0"2
0-
b0000000001010111 %
0h
b0000000001010111 "&
0"G
0p
b0000000001010111 |
b0000000001010111 j
0;
0)
#921
1"2
1-
1h
1"G
1p
b0000000001010111 ,
1;
1)
#926
0"2
0-
b0000000001011000 %
0h
b0000000001011000 "&
0"G
0p
b0000000001011000 |
b0000000001011000 j
0;
0)
#931
1"2
1-
1h
1"G
1p
b0000000001011000 ,
1;
1)
#936
0"2
0-
b0000000001011001 %
0h
b0000000001011001 "&
0"G
0p
b0000000001011001 |
b0000000001011001 j
0;
0)
#941
1"2
1-
1h
1"G
1p
b0000000001011001 ,
1;
1)
#946
0"2
0-
b0000000001011010 %
0h
b0000000001011010 "&
0"G
0p
b0000000001011010 |
b0000000001011010 j
0;
0)
#951
1"2
1-
1h
1"G
1p
b0000000001011010 ,
1;
1)
#956
0"2
0-
b0000000001011011 %
0h
b0000000001011011 "&
0"G
0p
b0000000001011011 |
b0000000001011011 j
0;
0)
#961
1"2
1-
1h
1"G
1p
b0000000001011011 ,
1;
1)
#966
0"2
0-
b0000000001011100 %
0h
b0000000001011100 "&
0"G
0p
b0000000001011100 |
b0000000001011100 j
0;
0)
#971
1"2
1-
1h
1"G
1p
b0000000001011100 ,
1;
1)
#976
0"2
0-
b0000000001011101 %
0h
b0000000001011101 "&
0"G
0p
b0000000001011101 |
b0000000001011101 j
0;
0)
#981
1"2
1-
1h
1"G
1p
b0000000001011101 ,
1;
1)
#986
0"2
0-
b0000000001011110 %
0h
b0000000001011110 "&
0"G
0p
b0000000001011110 |
b0000000001011110 j
0;
0)
#991
1"2
1-
1h
1"G
1p
b0000000001011110 ,
1;
1)
#996
0"2
0-
b0000000001011111 %
b00000000000000000000000011111111 &
0h
b00000000000000000000000011111111 S
b00000000000000000000000011111111 Z
b0000000001011111 "&
0p
b0000000001011111 j
0)
b00000000000000000000000011111111 #
b00000000000000000000000011111111 "7
0"G
b00000000000000000000000011111111 O
b0000000001011111 |
0;
#1001
1"2
1-
b00000000000000000000000011111111 "?
1h
b00000000000000000000000011111111 e
1"G
1p
b0000000001011111 ,
1;
1)
#1006
0"2
0-
b0000000001100000 %
b00000000000000000000000000000000 &
0h
b00000000000000000000000000000000 S
b00000000000000000000000000000000 Z
b0000000001100000 "&
0p
b0000000001100000 j
0)
b00000000000000000000000000000000 "?
b00000000000000000000000000000000 #
b00000000000000000000000000000000 "7
0"G
b00000000000000000000000000000000 O
b0000000001100000 |
0;
#1011
1"2
1-
1h
b00000000000000000000000000000000 e
1"G
1p
b0000000001100000 ,
1;
1)
